{
  "development": {
    "username": "postgres",
    "password": "Pohodeu1",
    "database": "mobile_programing",
    "host": "127.0.0.1",
    "dialect": "postgres"
  },
  "test": {
    "username": "postgres",
    "password": null,
    "database": "database_test",
    "host": "127.0.0.1",
    "dialect": "postgres"
  },
  "production": {
    "username": "postgres",
    "password": null,
    "database": "database_production",
    "host": "127.0.0.1",
    "dialect": "postgres"
  }
}
